…
The `extract_` functions can help users to filter down to the data the need. Users can extract data by their search results, the trait name, taxonomic information or by dataset.

### By search results

Combining `lookup_trait` with `extract_trait`, users can extract  **all traits with 'leaf' in the trait name**. Note we use the `.` notation to pass on the `lookup_trait` results to `extract_trait`


```r
data_leaf <- lookup_trait(austraits_4.0.0, "leaf") %>% extract_trait(austraits_4.0.0, .) 

data_leaf$traits
```

```
#> # A tibble: 330,591 × 24
#>    dataset_id taxon_name  obser…¹ trait…² value unit  entit…³ value…⁴ basis…⁵ repli…⁶ basis…⁷ life_…⁸ popul…⁹ indiv…˟
#>    <chr>      <chr>       <chr>   <chr>   <chr> <chr> <chr>   <chr>   <chr>   <chr>   <chr>   <chr>   <chr>   <chr>  
#>  1 ABRS_1981  Acanthocar… 0001    leaf_c… simp… <NA>  species mode    expert… <NA>    preser… adult   <NA>    <NA>   
#>  2 ABRS_1981  Acanthocar… 0001    leaf_l… 3     mm    species minimum measur… <NA>    preser… adult   <NA>    <NA>   
#>  3 ABRS_1981  Acanthocar… 0001    leaf_l… 15    mm    species maximum measur… <NA>    preser… adult   <NA>    <NA>   
#>  4 ABRS_1981  Acanthocar… 0002    leaf_c… simp… <NA>  species mode    expert… <NA>    preser… adult   <NA>    <NA>   
#>  5 ABRS_1981  Acanthocar… 0002    leaf_l… 4     mm    species minimum measur… <NA>    preser… adult   <NA>    <NA>   
#>  6 ABRS_1981  Acanthocar… 0002    leaf_l… 12    mm    species maximum measur… <NA>    preser… adult   <NA>    <NA>   
#>  7 ABRS_1981  Acanthocar… 0003    leaf_c… simp… <NA>  species mode    expert… <NA>    preser… adult   <NA>    <NA>   
#>  8 ABRS_1981  Acanthocar… 0003    leaf_l… 3     mm    species minimum measur… <NA>    preser… adult   <NA>    <NA>   
#>  9 ABRS_1981  Acanthocar… 0004    leaf_c… simp… <NA>  species mode    expert… <NA>    preser… adult   <NA>    <NA>   
#> 10 ABRS_1981  Acanthocar… 0004    leaf_l… 20    mm    species minimum measur… <NA>    preser… adult   <NA>    <NA>   
#> # … with 330,581 more rows, 10 more variables: temporal_id <chr>, source_id <chr>, location_id <chr>,
#> #   entity_context_id <chr>, plot_id <chr>, treatment_id <chr>, collection_date <chr>, measurement_remarks <chr>,
#> #   method_id <chr>, original_name <chr>, and abbreviated variable names ¹​observation_id, ²​trait_name, ³​entity_type,
#> #   ⁴​value_type, ⁵​basis_of_value, ⁶​replicates, ⁷​basis_of_record, ⁸​life_stage, ⁹​population_id, ˟​individual_id
```

### By trait name


```r
leafmass_data <- austraits_4.0.0 %>%
  extract_trait("leaf_mass_per_area") 
  
leafmass_data$trait
```

```
#> # A tibble: 27,949 × 24
#>    dataset_id  taxon_name obser…¹ trait…² value unit  entit…³ value…⁴ basis…⁵ repli…⁶ basis…⁷ life_…⁸ popul…⁹ indiv…˟
#>    <chr>       <chr>      <chr>   <chr>   <dbl> <chr> <chr>   <chr>   <chr>   <chr>   <chr>   <chr>   <chr>   <chr>  
#>  1 Ahrens_2019 Corymbia … 001     leaf_m…  185. g/m2  indivi… raw     measur… 1       field_… sapling 01      01     
#>  2 Ahrens_2019 Corymbia … 002     leaf_m…  138. g/m2  indivi… raw     measur… 1       field_… sapling 01      02     
#>  3 Ahrens_2019 Corymbia … 003     leaf_m…  169. g/m2  indivi… raw     measur… 1       field_… sapling 01      03     
#>  4 Ahrens_2019 Corymbia … 004     leaf_m…  151. g/m2  indivi… raw     measur… 1       field_… sapling 01      04     
#>  5 Ahrens_2019 Corymbia … 005     leaf_m…  142. g/m2  indivi… raw     measur… 1       field_… sapling 01      05     
#>  6 Ahrens_2019 Corymbia … 006     leaf_m…  156. g/m2  indivi… raw     measur… 1       field_… sapling 01      06     
#>  7 Ahrens_2019 Corymbia … 007     leaf_m…  150. g/m2  indivi… raw     measur… 1       field_… sapling 01      07     
#>  8 Ahrens_2019 Corymbia … 008     leaf_m…  175. g/m2  indivi… raw     measur… 1       field_… sapling 01      08     
#>  9 Ahrens_2019 Corymbia … 009     leaf_m…  148. g/m2  indivi… raw     measur… 1       field_… sapling 01      09     
#> 10 Ahrens_2019 Corymbia … 010     leaf_m…  135. g/m2  indivi… raw     measur… 1       field_… sapling 01      10     
#> # … with 27,939 more rows, 10 more variables: temporal_id <chr>, source_id <chr>, location_id <chr>,
#> #   entity_context_id <chr>, plot_id <chr>, treatment_id <chr>, collection_date <chr>, measurement_remarks <chr>,
#> #   method_id <chr>, original_name <chr>, and abbreviated variable names ¹​observation_id, ²​trait_name, ³​entity_type,
#> #   ⁴​value_type, ⁵​basis_of_value, ⁶​replicates, ⁷​basis_of_record, ⁸​life_stage, ⁹​population_id, ˟​individual_id
```

### By taxonomic information

#### By family

```r
proteaceae_data <- austraits_4.0.0 %>%
  extract_taxa(family = "Proteaceae")
  
proteaceae_data$trait
```

```
#> # A tibble: 91,221 × 24
#>    dataset_id taxon_name  obser…¹ trait…² value unit  entit…³ value…⁴ basis…⁵ repli…⁶ basis…⁷ life_…⁸ popul…⁹ indiv…˟
#>    <chr>      <chr>       <chr>   <chr>   <chr> <chr> <chr>   <chr>   <chr>   <chr>   <chr>   <chr>   <chr>   <chr>  
#>  1 ABRS_1981  Acidonia m… 0009    leaf_c… comp… <NA>  species mode    expert… <NA>    preser… adult   <NA>    <NA>   
#>  2 ABRS_1981  Acidonia m… 0009    leaf_l… 60    mm    species minimum measur… <NA>    preser… adult   <NA>    <NA>   
#>  3 ABRS_1981  Acidonia m… 0009    leaf_l… 130   mm    species maximum measur… <NA>    preser… adult   <NA>    <NA>   
#>  4 ABRS_1981  Acidonia m… 0009    plant_… shrub <NA>  species mode    expert… <NA>    preser… adult   <NA>    <NA>   
#>  5 ABRS_1981  Acidonia m… 0009    plant_… 3     m     species maximum measur… <NA>    preser… adult   <NA>    <NA>   
#>  6 ABRS_1981  Adenanthos… 0015    leaf_c… simp… <NA>  species mode    expert… <NA>    preser… adult   <NA>    <NA>   
#>  7 ABRS_1981  Adenanthos… 0015    leaf_l… 30    mm    species maximum measur… <NA>    preser… adult   <NA>    <NA>   
#>  8 ABRS_1981  Adenanthos… 0015    leaf_w… 30    mm    species maximum measur… <NA>    preser… adult   <NA>    <NA>   
#>  9 ABRS_1981  Adenanthos… 0015    plant_… shrub <NA>  species mode    expert… <NA>    preser… adult   <NA>    <NA>   
#> 10 ABRS_1981  Adenanthos… 0015    plant_… 5     m     species maximum measur… <NA>    preser… adult   <NA>    <NA>   
#> # … with 91,211 more rows, 10 more variables: temporal_id <chr>, source_id <chr>, location_id <chr>,
#> #   entity_context_id <chr>, plot_id <chr>, treatment_id <chr>, collection_date <chr>, measurement_remarks <chr>,
#> #   method_id <chr>, original_name <chr>, and abbreviated variable names ¹​observation_id, ²​trait_name, ³​entity_type,
#> #   ⁴​value_type, ⁵​basis_of_value, ⁶​replicates, ⁷​basis_of_record, ⁸​life_stage, ⁹​population_id, ˟​individual_id
```

#### By genus


```r
banksia_data <- austraits_4.0.0 %>%
  extract_taxa(genus = "Banksia")
  
banksia_data$trait
```

```
#> # A tibble: 16,991 × 24
#>    dataset_id taxon_name  obser…¹ trait…² value unit  entit…³ value…⁴ basis…⁵ repli…⁶ basis…⁷ life_…⁸ popul…⁹ indiv…˟
#>    <chr>      <chr>       <chr>   <chr>   <chr> <chr> <chr>   <chr>   <chr>   <chr>   <chr>   <chr>   <chr>   <chr>  
#>  1 ABRS_1981  Banksia ac… 0358    flower… nyyn… <NA>  species mode    expert… <NA>    preser… adult   <NA>    <NA>   
#>  2 ABRS_1981  Banksia ac… 0358    leaf_c… simp… <NA>  species mode    expert… <NA>    preser… adult   <NA>    <NA>   
#>  3 ABRS_1981  Banksia ac… 0358    leaf_l… 40    mm    species minimum measur… <NA>    preser… adult   <NA>    <NA>   
#>  4 ABRS_1981  Banksia ac… 0358    leaf_l… 90    mm    species maximum measur… <NA>    preser… adult   <NA>    <NA>   
#>  5 ABRS_1981  Banksia ac… 0358    leaf_p… ever… <NA>  species mode    expert… <NA>    preser… adult   <NA>    <NA>   
#>  6 ABRS_1981  Banksia ac… 0358    leaf_w… 8     mm    species minimum measur… <NA>    preser… adult   <NA>    <NA>   
#>  7 ABRS_1981  Banksia ac… 0358    leaf_w… 30    mm    species maximum measur… <NA>    preser… adult   <NA>    <NA>   
#>  8 ABRS_1981  Banksia ac… 0358    life_h… pere… <NA>  species mode    expert… <NA>    preser… adult   <NA>    <NA>   
#>  9 ABRS_1981  Banksia ac… 0358    plant_… shrub <NA>  species mode    expert… <NA>    preser… adult   <NA>    <NA>   
#> 10 ABRS_1981  Banksia ac… 0358    plant_… 2     m     species maximum measur… <NA>    preser… adult   <NA>    <NA>   
#> # … with 16,981 more rows, 10 more variables: temporal_id <chr>, source_id <chr>, location_id <chr>,
#> #   entity_context_id <chr>, plot_id <chr>, treatment_id <chr>, collection_date <chr>, measurement_remarks <chr>,
#> #   method_id <chr>, original_name <chr>, and abbreviated variable names ¹​observation_id, ²​trait_name, ³​entity_type,
#> #   ⁴​value_type, ⁵​basis_of_value, ⁶​replicates, ⁷​basis_of_record, ⁸​life_stage, ⁹​population_id, ˟​individual_id
```

#### By taxon name

```r
banksiaserrata_data <- austraits_4.0.0 %>%
  extract_taxa(taxon_name = "Banksia serrata") 
  
banksiaserrata_data$trait
```

```
#> # A tibble: 840 × 24
#>    dataset_id taxon_name  obser…¹ trait…² value unit  entit…³ value…⁴ basis…⁵ repli…⁶ basis…⁷ life_…⁸ popul…⁹ indiv…˟
#>    <chr>      <chr>       <chr>   <chr>   <chr> <chr> <chr>   <chr>   <chr>   <chr>   <chr>   <chr>   <chr>   <chr>  
#>  1 ABRS_1981  Banksia se… 0445    flower… yyyy… <NA>  species mode    expert… <NA>    preser… adult   <NA>    <NA>   
#>  2 ABRS_1981  Banksia se… 0445    leaf_c… simp… <NA>  species mode    expert… <NA>    preser… adult   <NA>    <NA>   
#>  3 ABRS_1981  Banksia se… 0445    leaf_l… 70    mm    species minimum measur… <NA>    preser… adult   <NA>    <NA>   
#>  4 ABRS_1981  Banksia se… 0445    leaf_l… 220   mm    species maximum measur… <NA>    preser… adult   <NA>    <NA>   
#>  5 ABRS_1981  Banksia se… 0445    leaf_p… ever… <NA>  species mode    expert… <NA>    preser… adult   <NA>    <NA>   
#>  6 ABRS_1981  Banksia se… 0445    leaf_w… 20    mm    species minimum measur… <NA>    preser… adult   <NA>    <NA>   
#>  7 ABRS_1981  Banksia se… 0445    leaf_w… 40    mm    species maximum measur… <NA>    preser… adult   <NA>    <NA>   
#>  8 ABRS_1981  Banksia se… 0445    life_h… pere… <NA>  species mode    expert… <NA>    preser… adult   <NA>    <NA>   
#>  9 ABRS_1981  Banksia se… 0445    plant_… shru… <NA>  species mode    expert… <NA>    preser… adult   <NA>    <NA>   
#> 10 ABRS_1981  Banksia se… 0445    plant_… 16    m     species maximum measur… <NA>    preser… adult   <NA>    <NA>   
#> # … with 830 more rows, 10 more variables: temporal_id <chr>, source_id <chr>, location_id <chr>,
#> #   entity_context_id <chr>, plot_id <chr>, treatment_id <chr>, collection_date <chr>, measurement_remarks <chr>,
#> #   method_id <chr>, original_name <chr>, and abbreviated variable names ¹​observation_id, ²​trait_name, ³​entity_type,
#> #   ⁴​value_type, ⁵​basis_of_value, ⁶​replicates, ⁷​basis_of_record, ⁸​life_stage, ⁹​population_id, ˟​individual_id
```

#### By dataset


```r
Westoby_2014 <- austraits_4.0.0 %>%
  extract_dataset("Westoby_2014") 
  
Westoby_2014$trait
```

```
#> # A tibble: 4,225 × 24
#>    dataset_id   taxon_n…¹ obser…² trait…³ value unit  entit…⁴ value…⁵ basis…⁶ repli…⁷ basis…⁸ life_…⁹ popul…˟ indiv…˟
#>    <chr>        <chr>     <chr>   <chr>   <chr> <chr> <chr>   <chr>   <chr>   <chr>   <chr>   <chr>   <chr>   <chr>  
#>  1 Westoby_2014 Acacia a… 001     leaf_a… 199.6 mm2   popula… mean    measur… 5       field   adult   04      <NA>   
#>  2 Westoby_2014 Acacia a… 001     leaf_h… 4.055 mmol… popula… maximum measur… 3       field   adult   04      <NA>   
#>  3 Westoby_2014 Acacia a… 001     leaf_m… 402.… g/m2  popula… mean    measur… 5       field   adult   04      <NA>   
#>  4 Westoby_2014 Acacia a… 001     leaf_s… 4.884 10^4… popula… mean    measur… 5       field   adult   04      <NA>   
#>  5 Westoby_2014 Acacia a… 001     water_… -3.0… MPa   popula… mean    measur… 3       field   adult   04      <NA>   
#>  6 Westoby_2014 Acacia a… 001     water_… -7.0… MPa   popula… mean    measur… 3       field   adult   04      <NA>   
#>  7 Westoby_2014 Acacia a… 001     wood_d… 0.837 mg/m… popula… mean    measur… 5       field   adult   04      <NA>   
#>  8 Westoby_2014 Acacia c… 002     wood_d… 0.945 mg/m… indivi… raw     measur… 1       field   adult   08      01     
#>  9 Westoby_2014 Acacia c… 003     wood_d… 0.80… mg/m… indivi… raw     measur… 1       field   adult   08      02     
#> 10 Westoby_2014 Acacia c… 004     wood_d… 0.80… mg/m… indivi… raw     measur… 1       field   adult   08      03     
#> # … with 4,215 more rows, 10 more variables: temporal_id <chr>, source_id <chr>, location_id <chr>,
#> #   entity_context_id <chr>, plot_id <chr>, treatment_id <chr>, collection_date <chr>, measurement_remarks <chr>,
#> #   method_id <chr>, original_name <chr>, and abbreviated variable names ¹​taxon_name, ²​observation_id, ³​trait_name,
#> #   ⁴​entity_type, ⁵​value_type, ⁶​basis_of_value, ⁷​replicates, ⁸​basis_of_record, ⁹​life_stage, ˟​population_id,
#> #   ˟​individual_id
```
…
```r
wide_Westoby_2014 <- Westoby_2014$traits %>% trait_pivot_wider() 
```

### Pivot longer

We can revert back to a wide format dataset using `trait_pivot_longer`, however this process is imperfect as observations can not be fully delineated without the meta-data columns that were removed during `trait_pivot_wider`


```r
wide_Westoby_2014 %>% trait_pivot_longer() 
```

```
#> # A tibble: 4,090 × 19
#> # Groups:   dataset_id, source_id, taxon_name, original_name, observation_id, method_id [516]
#>    dataset_id taxon…¹ obser…² entit…³ life_…⁴ popul…⁵ indiv…⁶ tempo…⁷ sourc…⁸ locat…⁹ entit…˟ plot_id treat…˟ colle…˟
#>    <chr>      <chr>   <chr>   <chr>   <chr>   <chr>   <chr>   <chr>   <chr>   <chr>   <chr>   <chr>   <chr>   <chr>  
#>  1 Westoby_2… Acacia… 001     popula… adult   04      <NA>    <NA>    <NA>    04      <NA>    <NA>    <NA>    2011/2…
#>  2 Westoby_2… Acacia… 001     popula… adult   04      <NA>    <NA>    <NA>    04      <NA>    <NA>    <NA>    2011/2…
#>  3 Westoby_2… Acacia… 001     popula… adult   04      <NA>    <NA>    <NA>    04      <NA>    <NA>    <NA>    2011/2…
#>  4 Westoby_2… Acacia… 001     popula… adult   04      <NA>    <NA>    <NA>    04      <NA>    <NA>    <NA>    2011/2…
#>  5 Westoby_2… Acacia… 001     popula… adult   04      <NA>    <NA>    <NA>    04      <NA>    <NA>    <NA>    2011/2…
#>  6 Westoby_2… Acacia… 001     popula… adult   04      <NA>    <NA>    <NA>    04      <NA>    <NA>    <NA>    2011/2…
#>  7 Westoby_2… Acacia… 002     indivi… adult   08      01      <NA>    <NA>    08      <NA>    <NA>    <NA>    2011/2…
#>  8 Westoby_2… Acacia… 003     indivi… adult   08      02      <NA>    <NA>    08      <NA>    <NA>    <NA>    2011/2…
#>  9 Westoby_2… Acacia… 004     indivi… adult   08      03      <NA>    <NA>    08      <NA>    <NA>    <NA>    2011/2…
#> 10 Westoby_2… Acacia… 005     popula… adult   08      <NA>    <NA>    <NA>    08      <NA>    <NA>    <NA>    2011/2…
#> # … with 4,080 more rows, 5 more variables: method_id <chr>, original_name <chr>, leaf_area <chr>, trait_name <chr>,
#> #   value <chr>, and abbreviated variable names ¹​taxon_name, ²​observation_id, ³​entity_type, ⁴​life_stage,
#> #   ⁵​population_id, ⁶​individual_id, ⁷​temporal_id, ⁸​source_id, ⁹​location_id, ˟​entity_context_id, ˟​treatment_id,
#> #   ˟​collection_date
```

### Transform into a single table

Users can also transform the entire relational database into one wide table. This approach turns the list structure into one single dataframe. 


```r
Westoby_2014 %>% as_wide_table()
```

```
#> # A tibble: 4,259 × 53
#>    dataset_id   taxon_n…¹ obser…² trait…³ value unit  entit…⁴ value…⁵ basis…⁶ repli…⁷ basis…⁸ life_…⁹ popul…˟ indiv…˟
#>    <chr>        <chr>     <chr>   <chr>   <chr> <chr> <chr>   <chr>   <chr>   <chr>   <chr>   <chr>   <chr>   <chr>  
#>  1 Westoby_2014 Acacia a… 001     leaf_a… 199.6 mm2   popula… mean    measur… 5       field   adult   04      <NA>   
#>  2 Westoby_2014 Acacia a… 001     leaf_h… 4.055 mmol… popula… maximum measur… 3       field   adult   04      <NA>   
#>  3 Westoby_2014 Acacia a… 001     leaf_m… 402.… g/m2  popula… mean    measur… 5       field   adult   04      <NA>   
#>  4 Westoby_2014 Acacia a… 001     leaf_s… 4.884 10^4… popula… mean    measur… 5       field   adult   04      <NA>   
#>  5 Westoby_2014 Acacia a… 001     water_… -3.0… MPa   popula… mean    measur… 3       field   adult   04      <NA>   
#>  6 Westoby_2014 Acacia a… 001     water_… -7.0… MPa   popula… mean    measur… 3       field   adult   04      <NA>   
#>  7 Westoby_2014 Acacia a… 001     wood_d… 0.837 mg/m… popula… mean    measur… 5       field   adult   04      <NA>   
#>  8 Westoby_2014 Acacia c… 002     wood_d… 0.945 mg/m… indivi… raw     measur… 1       field   adult   08      01     
#>  9 Westoby_2014 Acacia c… 003     wood_d… 0.80… mg/m… indivi… raw     measur… 1       field   adult   08      02     
#> 10 Westoby_2014 Acacia c… 004     wood_d… 0.80… mg/m… indivi… raw     measur… 1       field   adult   08      03     
#> # … with 4,249 more rows, 39 more variables: temporal_id <chr>, source_id <chr>, location_id <chr>,
#> #   entity_context_id <chr>, plot_id <chr>, treatment_id <chr>, collection_date <chr>, measurement_remarks <chr>,
#> #   method_id <chr>, original_name <chr>, context <chr>, `latitude (deg)` <chr>, `longitude (deg)` <chr>,
#> #   location <chr>, methods <chr>, dataset_description <chr>, sampling_strategy <chr>, source_primary_key <chr>,
#> #   source_primary_citation <chr>, source_secondary_key <chr>, source_secondary_citation <chr>,
#> #   source_original_dataset_key <chr>, source_original_dataset_citation <chr>, data_collectors <chr>,
#> #   assistants <chr>, austraits_curators <chr>, taxonNameValidation <chr>, taxon_rank <chr>, trinomial <chr>, …
```
…
