…
The `extract_` functions can help users to filter down to the data the need. Users can extract data by their search results, the trait name, taxonomic information or by dataset.

### By search results

Combining `lookup_trait` with `extract_trait`, users can extract  **all traits with 'leaf' in the trait name**. Note we use the `.` notation to pass on the `lookup_trait` results to `extract_trait`


```r
data_leaf <- lookup_trait(austraits_3.0.2, "leaf") %>% extract_trait(austraits_3.0.2, .) 

data_leaf$traits
```

```
#> # A tibble: 310,219 × 12
#>    dataset_id  taxon_name          site_name context_n…¹ obser…² trait…³    value unit  date  value…⁴ repli…⁵ origi…⁶
#>    <chr>       <chr>               <chr>     <chr>       <chr>   <chr>      <dbl> <chr> <chr> <fct>   <chr>   <chr>  
#>  1 Ahrens_2019 Corymbia calophylla BOO       <NA>        Ahrens… leaf_a…  1.29e+4 mm2   2017… raw_va… 1       Corymb…
#>  2 Ahrens_2019 Corymbia calophylla BOO       <NA>        Ahrens… leaf_d… -2.80e+1 per … 2017… raw_va… 1       Corymb…
#>  3 Ahrens_2019 Corymbia calophylla BOO       <NA>        Ahrens… leaf_N…  9   e+0 mg/g  2017… raw_va… 1       Corymb…
#>  4 Ahrens_2019 Corymbia calophylla BOO       <NA>        Ahrens… leaf_P…  2.26e-2 umol… 2017… raw_va… 1       Corymb…
#>  5 Ahrens_2019 Corymbia calophylla BOO       <NA>        Ahrens… specif…  5.4 e+0 mm2/… 2017… raw_va… 1       Corymb…
#>  6 Ahrens_2019 Corymbia calophylla BOO       <NA>        Ahrens… leaf_a…  9.65e+3 mm2   2017… raw_va… 1       Corymb…
#>  7 Ahrens_2019 Corymbia calophylla BOO       <NA>        Ahrens… leaf_d… -2.73e+1 per … 2017… raw_va… 1       Corymb…
#>  8 Ahrens_2019 Corymbia calophylla BOO       <NA>        Ahrens… leaf_N…  1.6 e+1 mg/g  2017… raw_va… 1       Corymb…
#>  9 Ahrens_2019 Corymbia calophylla BOO       <NA>        Ahrens… leaf_P…  3.69e-2 umol… 2017… raw_va… 1       Corymb…
#> 10 Ahrens_2019 Corymbia calophylla BOO       <NA>        Ahrens… specif…  7.24e+0 mm2/… 2017… raw_va… 1       Corymb…
#> # … with 310,209 more rows, and abbreviated variable names ¹​context_name, ²​observation_id, ³​trait_name, ⁴​value_type,
#> #   ⁵​replicates, ⁶​original_name
```
…
### By taxonomic information

#### By family

```r
proteaceae_data <- austraits_3.0.2 %>%
  extract_taxa(family = "Proteaceae")
  
proteaceae_data$trait
```

```
#> # A tibble: 73,567 × 12
#>    dataset_id taxon_name     site_name              conte…¹ obser…² trait…³ value unit  date  value…⁴ repli…⁵ origi…⁶
#>    <chr>      <chr>          <chr>                  <chr>   <chr>   <chr>   <chr> <chr> <chr> <fct>   <chr>   <chr>  
#>  1 ANBG_2019  Banksia        site_at_-33.4475_degS… <NA>    ANBG_2… seed_m… 63.0… mg    2004… site_m… variou… Banksia
#>  2 ANBG_2019  Banksia        site_at_-33.7542_degS… <NA>    ANBG_2… seed_m… 11.1… mg    2004… site_m… variou… Banksia
#>  3 ANBG_2019  Banksia aemula site_at_-32.75_degS_a… <NA>    ANBG_2… disper… wings <NA>  2016… expert… <NA>    Banksi…
#>  4 ANBG_2019  Banksia aemula site_at_-32.75_degS_a… <NA>    ANBG_2… disper… wings <NA>  2017… expert… <NA>    Banksi…
#>  5 ANBG_2019  Banksia aemula site_at_-32.75_degS_a… <NA>    ANBG_2… seed_s… pyra… <NA>  2016… expert… <NA>    Banksi…
#>  6 ANBG_2019  Banksia aemula site_at_-32.75_degS_a… <NA>    ANBG_2… seed_s… pyra… <NA>  2017… expert… <NA>    Banksi…
#>  7 ANBG_2019  Banksia aemula site_at_-32.75_degS_a… <NA>    ANBG_2… seed_t… rough <NA>  2016… expert… <NA>    Banksi…
#>  8 ANBG_2019  Banksia aemula site_at_-32.75_degS_a… <NA>    ANBG_2… seed_t… rough <NA>  2017… expert… <NA>    Banksi…
#>  9 ANBG_2019  Banksia armata site_at_-32.5806_degS… <NA>    ANBG_2… seed_m… 10.4… mg    2004… site_m… variou… Banksi…
#> 10 ANBG_2019  Banksia armata site_at_-33.4467_degS… <NA>    ANBG_2… seed_m… 13.2… mg    2004… site_m… variou… Banksi…
#> # … with 73,557 more rows, and abbreviated variable names ¹​context_name, ²​observation_id, ³​trait_name, ⁴​value_type,
#> #   ⁵​replicates, ⁶​original_name
```

#### By genus


```r
banksia_data <- austraits_3.0.2 %>%
  extract_taxa(genus = "Banksia")
  
banksia_data$trait
```

```
#> # A tibble: 14,074 × 12
#>    dataset_id taxon_name     site_name              conte…¹ obser…² trait…³ value unit  date  value…⁴ repli…⁵ origi…⁶
#>    <chr>      <chr>          <chr>                  <chr>   <chr>   <chr>   <chr> <chr> <chr> <fct>   <chr>   <chr>  
#>  1 ANBG_2019  Banksia        site_at_-33.4475_degS… <NA>    ANBG_2… seed_m… 63.0… mg    2004… site_m… variou… Banksia
#>  2 ANBG_2019  Banksia        site_at_-33.7542_degS… <NA>    ANBG_2… seed_m… 11.1… mg    2004… site_m… variou… Banksia
#>  3 ANBG_2019  Banksia aemula site_at_-32.75_degS_a… <NA>    ANBG_2… disper… wings <NA>  2016… expert… <NA>    Banksi…
#>  4 ANBG_2019  Banksia aemula site_at_-32.75_degS_a… <NA>    ANBG_2… disper… wings <NA>  2017… expert… <NA>    Banksi…
#>  5 ANBG_2019  Banksia aemula site_at_-32.75_degS_a… <NA>    ANBG_2… seed_s… pyra… <NA>  2016… expert… <NA>    Banksi…
#>  6 ANBG_2019  Banksia aemula site_at_-32.75_degS_a… <NA>    ANBG_2… seed_s… pyra… <NA>  2017… expert… <NA>    Banksi…
#>  7 ANBG_2019  Banksia aemula site_at_-32.75_degS_a… <NA>    ANBG_2… seed_t… rough <NA>  2016… expert… <NA>    Banksi…
#>  8 ANBG_2019  Banksia aemula site_at_-32.75_degS_a… <NA>    ANBG_2… seed_t… rough <NA>  2017… expert… <NA>    Banksi…
#>  9 ANBG_2019  Banksia armata site_at_-32.5806_degS… <NA>    ANBG_2… seed_m… 10.4… mg    2004… site_m… variou… Banksi…
#> 10 ANBG_2019  Banksia armata site_at_-33.4467_degS… <NA>    ANBG_2… seed_m… 13.2… mg    2004… site_m… variou… Banksi…
#> # … with 14,064 more rows, and abbreviated variable names ¹​context_name, ²​observation_id, ³​trait_name, ⁴​value_type,
#> #   ⁵​replicates, ⁶​original_name
```

#### By taxon name

```r
banksiaserrata_data <- austraits_3.0.2 %>%
  extract_taxa(taxon_name = "Banksia serrata") 
  
banksiaserrata_data$trait
```

```
#> # A tibble: 826 × 12
#>    dataset_id  taxon_name      site_name            conte…¹ obser…² trait…³ value unit  date  value…⁴ repli…⁵ origi…⁶
#>    <chr>       <chr>           <chr>                <chr>   <chr>   <chr>   <chr> <chr> <chr> <fct>   <chr>   <chr>  
#>  1 ANBG_2019   Banksia serrata site_at_-35.15_degS… <NA>    ANBG_2… disper… wings <NA>  2016… expert… <NA>    Banksi…
#>  2 ANBG_2019   Banksia serrata site_at_-35.15_degS… <NA>    ANBG_2… disper… wings <NA>  2017… expert… <NA>    Banksi…
#>  3 ANBG_2019   Banksia serrata site_at_-35.15_degS… <NA>    ANBG_2… seed_s… poin… <NA>  2016… expert… <NA>    Banksi…
#>  4 ANBG_2019   Banksia serrata site_at_-35.15_degS… <NA>    ANBG_2… seed_s… poin… <NA>  2017… expert… <NA>    Banksi…
#>  5 ANBG_2019   Banksia serrata site_at_-35.15_degS… <NA>    ANBG_2… seed_t… rough <NA>  2017… expert… <NA>    Banksi…
#>  6 ANBG_2019   Banksia serrata site_at_-35.15_degS… <NA>    ANBG_2… seed_t… rough <NA>  2016… expert… <NA>    Banksi…
#>  7 ANBG_2019   Banksia serrata site_at_-35.3711_de… <NA>    ANBG_2… seed_m… 69    mg    2016… site_m… variou… Banksi…
#>  8 Barlow_1981 Banksia serrata <NA>                 <NA>    Barlow… flower… yyyy… <NA>  <NA>  expert… <NA>    Banksi…
#>  9 Barlow_1981 Banksia serrata <NA>                 <NA>    Barlow… leaf_c… simp… <NA>  <NA>  expert… <NA>    Banksi…
#> 10 Barlow_1981 Banksia serrata <NA>                 <NA>    Barlow… leaf_l… 70    mm    <NA>  expert… <NA>    Banksi…
#> # … with 816 more rows, and abbreviated variable names ¹​context_name, ²​observation_id, ³​trait_name, ⁴​value_type,
#> #   ⁵​replicates, ⁶​original_name
```

#### By dataset


```r
Westoby_2014 <- austraits_3.0.2 %>%
  extract_dataset("Westoby_2014") 
  
Westoby_2014$trait
```

```
#> # A tibble: 4,225 × 12
#>    dataset_id   taxon_name      site_name context_name observatio…¹ trait…² value unit  date  value…³ repli…⁴ origi…⁵
#>    <chr>        <chr>           <chr>     <chr>        <chr>        <chr>   <chr> <chr> <chr> <fct>   <chr>   <chr>  
#>  1 Westoby_2014 Acacia dealbata Bothwell  <NA>         Westoby_201… huber_… 8.22… mm2_… <NA>  site_m… 5       Acacia…
#>  2 Westoby_2014 Acacia dealbata Bothwell  <NA>         Westoby_201… leaf_a… 6575  mm2   <NA>  site_m… 5       Acacia…
#>  3 Westoby_2014 Acacia dealbata Bothwell  <NA>         Westoby_201… leaf_B… 21.6… mg/kg <NA>  site_m… 5       Acacia…
#>  4 Westoby_2014 Acacia dealbata Bothwell  <NA>         Westoby_201… leaf_C… 523.2 mg/g  <NA>  site_m… 5       Acacia…
#>  5 Westoby_2014 Acacia dealbata Bothwell  <NA>         Westoby_201… leaf_C… 3.31… mg/g  <NA>  site_m… 5       Acacia…
#>  6 Westoby_2014 Acacia dealbata Bothwell  <NA>         Westoby_201… leaf_C… 13.1… mg/kg <NA>  site_m… 5       Acacia…
#>  7 Westoby_2014 Acacia dealbata Bothwell  <NA>         Westoby_201… leaf_d… 1.96  umol… <NA>  site_m… 5       Acacia…
#>  8 Westoby_2014 Acacia dealbata Bothwell  <NA>         Westoby_201… leaf_d… 0.02… umol… <NA>  site_m… 5       Acacia…
#>  9 Westoby_2014 Acacia dealbata Bothwell  <NA>         Westoby_201… leaf_d… -28.… per … <NA>  site_m… 5       Acacia…
#> 10 Westoby_2014 Acacia dealbata Bothwell  <NA>         Westoby_201… leaf_F… 126.… mg/kg <NA>  site_m… 5       Acacia…
#> # … with 4,215 more rows, and abbreviated variable names ¹​observation_id, ²​trait_name, ³​value_type, ⁴​replicates,
#> #   ⁵​original_name
```
…
The first option `bind_trait_values` concatenates the observations into a single string, thereby retaining all information during the pivot wider process.


```r
Westoby_2014_bound <- Westoby_2014$traits %>% bind_trait_values()

# Inspect rows that have bounded values. This part requires dplyr and stringr packages.
Westoby_2014_bound %>% 
  dplyr::slice(
    stringr::str_which(Westoby_2014_bound$value, pattern = "--")) 
```

```
#> # A tibble: 78 × 12
#>    dataset_id   taxon_name         site_name context_name observa…¹ trait…² value unit  date  value…³ repli…⁴ origi…⁵
#>    <chr>        <chr>              <chr>     <chr>        <chr>     <chr>   <chr> <chr> <chr> <chr>   <chr>   <chr>  
#>  1 Westoby_2014 Banksia marginata  Bothwell  <NA>         Westoby_… vessel… 3462… coun… <NA>  site_m… 3--3--… Banksi…
#>  2 Westoby_2014 Banksia marginata  Bothwell  <NA>         Westoby_… vessel… 7.47… um    <NA>  site_m… 3--3--… Banksi…
#>  3 Westoby_2014 Bossiaea cinerea   Bothwell  <NA>         Westoby_… vessel… 3254… coun… <NA>  site_m… 3--3--… Bossia…
#>  4 Westoby_2014 Bossiaea cinerea   Bothwell  <NA>         Westoby_… vessel… 7.39… um    <NA>  site_m… 3--3--… Bossia…
#>  5 Westoby_2014 Cassinia aculeata  Bothwell  <NA>         Westoby_… vessel… 4335… coun… <NA>  site_m… 3--3--… Cassin…
#>  6 Westoby_2014 Cassinia aculeata  Bothwell  <NA>         Westoby_… vessel… 4.46… um    <NA>  site_m… 3--3--… Cassin…
#>  7 Westoby_2014 Daviesia latifolia Bothwell  <NA>         Westoby_… vessel… 2132… coun… <NA>  site_m… 3--3--… Davies…
#>  8 Westoby_2014 Daviesia latifolia Bothwell  <NA>         Westoby_… vessel… 9.70… um    <NA>  site_m… 3--3--… Davies…
#>  9 Westoby_2014 Epacris impressa   Bothwell  <NA>         Westoby_… vessel… 3418… coun… <NA>  site_m… 3--3--… Epacri…
#> 10 Westoby_2014 Epacris impressa   Bothwell  <NA>         Westoby_… vessel… 4.09… um    <NA>  site_m… 3--3--… Epacri…
#> # … with 68 more rows, and abbreviated variable names ¹​observation_id, ²​trait_name, ³​value_type, ⁴​replicates,
#> #   ⁵​original_name
```
…
### Pivot wider

Once the traits table has been collapsed using the above methods, we can transform it into wide format where each trait is arranged in its own column using `trait_pivot_wider`. This function will produced five tables, the trait values are found in the `value` table. 

#### Bounded values

```r
Westoby_2014_bound_wide <- Westoby_2014_bound %>% trait_pivot_wider()

Westoby_2014_bound_wide$value
```

```
#> # A tibble: 301 × 42
#>    dataset_id taxon…¹ site_…² conte…³ obser…⁴ huber…⁵ leaf_…⁶ leaf_…⁷ leaf_…⁸ leaf_…⁹ leaf_…˟ leaf_…˟ leaf_…˟ leaf_…˟
#>    <chr>      <chr>   <chr>   <chr>   <chr>   <chr>   <chr>   <chr>   <chr>   <chr>   <chr>   <chr>   <chr>   <chr>  
#>  1 Westoby_2… Acacia… Bothwe… <NA>    Westob… 8.2265… 6575    21.659… 523.2   3.3136… 13.139… 1.96    0.02361 -28.208
#>  2 Westoby_2… Aotus … Bothwe… <NA>    Westob… 0.0007… 5.9     22.388… 538.8   1.3897… 3.1327… 3.78    0.02503 -25.908
#>  3 Westoby_2… Banksi… Bothwe… <NA>    Westob… 0.0002… 114.7   12.673… 505     2.2195… 3.8018… 4.85    0.02918 -28.583
#>  4 Westoby_2… Bossia… Bothwe… <NA>    Westob… 0.0002… 18.4    13.549… 535     2.4189… 6.6135… 2.53    0.02324 -29.031
#>  5 Westoby_2… Bursar… Bothwe… <NA>    Westob… <NA>    <NA>    <NA>    <NA>    <NA>    <NA>    <NA>    <NA>    -29.031
#>  6 Westoby_2… Cassin… Bothwe… <NA>    Westob… 0.0003… 12.4    36.375… 545.8   3.3519… 12.675… 3.74    0.04181 -29.93 
#>  7 Westoby_2… Davies… Bothwe… <NA>    Westob… 0.0003… 829.2   19.995… 508.1   0.7602… 8.5226… 2.54    0.02112 -27.571
#>  8 Westoby_2… Epacri… Bothwe… <NA>    Westob… 0.0010… 6.9     48.085… 530     2.6401… 4.6465… 1.55    0.01506 -28.269
#>  9 Westoby_2… Eucaly… Bothwe… <NA>    Westob… 0.0001… 1576.1  13.561… 564.2   1.9902… 5.3923… 2.64    0.0125  -27.105
#> 10 Westoby_2… Eucaly… Bothwe… <NA>    Westob… 0.0001… 975.4   14.204… 514.4   3.3375… 6.1708… 2.05    0.01313 -27.363
#> # … with 291 more rows, 28 more variables: leaf_Fe_per_dry_mass <chr>, leaf_K_per_dry_mass <chr>,
#> #   leaf_Mg_per_dry_mass <chr>, leaf_Mn_per_dry_mass <chr>, leaf_Mo_per_dry_mass <chr>, leaf_N_per_dry_mass <chr>,
#> #   leaf_Na_per_dry_mass <chr>, leaf_P_per_dry_mass <chr>, leaf_S_per_dry_mass <chr>,
#> #   leaf_specific_conductivity <chr>, leaf_Zn_per_dry_mass <chr>, modulus_of_elasticity_xylem <chr>,
#> #   modulus_of_rupture <chr>, photosynthetic_rate_per_area_saturated <chr>,
#> #   photosynthetic_rate_per_dry_mass_saturated <chr>, sapwood_specific_conductivity <chr>, specific_leaf_area <chr>,
#> #   water_potential_midday <chr>, water_potential_predawn <chr>, water_use_efficiency_photosynthetic <chr>, …
```

#### Summarised values


```r
Westoby_2014_summarised_wide <- Westoby_2014_summarised %>% trait_pivot_wider()

Westoby_2014_summarised_wide$value
```

```
#> # A tibble: 301 × 42
#>    dataset…¹ taxon…² site_…³ conte…⁴ obser…⁵ huber_…⁶ leaf_…⁷ leaf_…⁸ leaf_…⁹ leaf_…˟ leaf_…˟ leaf_…˟ leaf_…˟ leaf_…˟
#>    <chr>     <chr>   <chr>   <chr>   <chr>      <dbl>   <dbl>   <dbl>   <dbl>   <dbl>   <dbl>   <dbl>   <dbl>   <dbl>
#>  1 Westoby_… Acacia… Bothwe… <NA>    Westob…  8.23e-5  6575      21.7    523.   3.31    13.1     1.96  0.0236   -28.2
#>  2 Westoby_… Aotus … Bothwe… <NA>    Westob…  7.35e-4     5.9    22.4    539.   1.39     3.13    3.78  0.0250   -25.9
#>  3 Westoby_… Banksi… Bothwe… <NA>    Westob…  2.60e-4   115.     12.7    505    2.22     3.80    4.85  0.0292   -28.6
#>  4 Westoby_… Bossia… Bothwe… <NA>    Westob…  2.20e-4    18.4    13.5    535    2.42     6.61    2.53  0.0232   -29.0
#>  5 Westoby_… Bursar… Bothwe… <NA>    Westob… NA          NA      NA       NA   NA       NA      NA    NA        -29.0
#>  6 Westoby_… Cassin… Bothwe… <NA>    Westob…  3.24e-4    12.4    36.4    546.   3.35    12.7     3.74  0.0418   -29.9
#>  7 Westoby_… Davies… Bothwe… <NA>    Westob…  3.72e-4   829.     20.0    508.   0.760    8.52    2.54  0.0211   -27.6
#>  8 Westoby_… Epacri… Bothwe… <NA>    Westob…  1.05e-3     6.9    48.1    530    2.64     4.65    1.55  0.0151   -28.3
#>  9 Westoby_… Eucaly… Bothwe… <NA>    Westob…  1.86e-4  1576.     13.6    564.   1.99     5.39    2.64  0.0125   -27.1
#> 10 Westoby_… Eucaly… Bothwe… <NA>    Westob…  1.22e-4   975.     14.2    514.   3.34     6.17    2.05  0.0131   -27.4
#> # … with 291 more rows, 28 more variables: leaf_Fe_per_dry_mass <dbl>, leaf_K_per_dry_mass <dbl>,
#> #   leaf_Mg_per_dry_mass <dbl>, leaf_Mn_per_dry_mass <dbl>, leaf_Mo_per_dry_mass <dbl>, leaf_N_per_dry_mass <dbl>,
#> #   leaf_Na_per_dry_mass <dbl>, leaf_P_per_dry_mass <dbl>, leaf_S_per_dry_mass <dbl>,
#> #   leaf_specific_conductivity <dbl>, leaf_Zn_per_dry_mass <dbl>, modulus_of_elasticity_xylem <dbl>,
#> #   modulus_of_rupture <dbl>, photosynthetic_rate_per_area_saturated <dbl>,
#> #   photosynthetic_rate_per_dry_mass_saturated <dbl>, sapwood_specific_conductivity <dbl>, specific_leaf_area <dbl>,
#> #   water_potential_midday <dbl>, water_potential_predawn <dbl>, water_use_efficiency_photosynthetic <dbl>, …
```
…
```r
Westoby_2014_long_again <- Westoby_2014_summarised_wide %>% trait_pivot_longer()
```

For tables that contained values that were bound using `bind_trait_values`. Users can seperate the bounded trait values, using `separate_trait_values`. 


```r
Westoby_2014_bound_wide %>% 
  trait_pivot_longer() %>% 
  separate_trait_values(., austraits_3.0.2$definitions)
```

```
#> # A tibble: 4,225 × 12
#>    dataset_id   taxon_name      site_name context_name observatio…¹ trait…² value unit  date  value…³ repli…⁴ origi…⁵
#>    <chr>        <chr>           <chr>     <chr>        <chr>        <chr>   <chr> <chr> <chr> <fct>   <chr>   <chr>  
#>  1 Westoby_2014 Acacia dealbata Bothwell  <NA>         Westoby_201… huber_… 8.22… mm2_… <NA>  <NA>    5       Acacia…
#>  2 Westoby_2014 Acacia dealbata Bothwell  <NA>         Westoby_201… leaf_a… 6575  mm2   <NA>  <NA>    5       Acacia…
#>  3 Westoby_2014 Acacia dealbata Bothwell  <NA>         Westoby_201… leaf_B… 21.6… mg/kg <NA>  <NA>    5       Acacia…
#>  4 Westoby_2014 Acacia dealbata Bothwell  <NA>         Westoby_201… leaf_C… 523.2 mg/g  <NA>  <NA>    5       Acacia…
#>  5 Westoby_2014 Acacia dealbata Bothwell  <NA>         Westoby_201… leaf_C… 3.31… mg/g  <NA>  <NA>    5       Acacia…
#>  6 Westoby_2014 Acacia dealbata Bothwell  <NA>         Westoby_201… leaf_C… 13.1… mg/kg <NA>  <NA>    5       Acacia…
#>  7 Westoby_2014 Acacia dealbata Bothwell  <NA>         Westoby_201… leaf_d… 1.96  umol… <NA>  <NA>    5       Acacia…
#>  8 Westoby_2014 Acacia dealbata Bothwell  <NA>         Westoby_201… leaf_d… 0.02… umol… <NA>  <NA>    5       Acacia…
#>  9 Westoby_2014 Acacia dealbata Bothwell  <NA>         Westoby_201… leaf_d… -28.… per … <NA>  <NA>    5       Acacia…
#> 10 Westoby_2014 Acacia dealbata Bothwell  <NA>         Westoby_201… leaf_F… 126.… mg/kg <NA>  <NA>    5       Acacia…
#> # … with 4,215 more rows, and abbreviated variable names ¹​observation_id, ²​trait_name, ³​value_type, ⁴​replicates,
#> #   ⁵​original_name
```
…
