Extract all data for a particular dataset — extract_dataset • austraits
…
    Value

    A large list of tibbles containing all austraits information for one particular dataset

    Author

    Daniel Falster - daniel.falster@unsw.edu.au

    Examples

extract_dataset(austraits, "Falster_2003")

#> $traits
#> # A tibble: 114 x 12
#>    dataset_id  taxon_name site_name context_name observation_id trait_name value
#>    <chr>       <chr>      <chr>     <chr>        <chr>          <chr>      <chr>
#>  1 Falster_20… Acacia my… Ku-ring-… NA           Falster_2003_… leaf_angle 66.1 
#>  2 Falster_20… Acacia my… Ku-ring-… NA           Falster_2003_… leaf_area  319  
#>  3 Falster_20… Acacia my… Ku-ring-… NA           Falster_2003_… leaf_comp… simp…
#>  4 Falster_20… Acacia su… Ku-ring-… NA           Falster_2003_… leaf_angle 71.7 
#>  5 Falster_20… Acacia su… Ku-ring-… NA           Falster_2003_… leaf_area  562  
#>  6 Falster_20… Acacia su… Ku-ring-… NA           Falster_2003_… leaf_comp… simp…
#>  7 Falster_20… Angophora… Ku-ring-… NA           Falster_2003_… leaf_angle 50.8 
#>  8 Falster_20… Angophora… Ku-ring-… NA           Falster_2003_… leaf_area  1590 
#>  9 Falster_20… Angophora… Ku-ring-… NA           Falster_2003_… leaf_comp… simp…
#> 10 Falster_20… Banksia m… Ku-ring-… NA           Falster_2003_… leaf_angle 53.1 
#> # … with 104 more rows, and 5 more variables: unit <chr>, date <chr>,
#> #   value_type <fct>, replicates <chr>, original_name <chr>
…
#> 3 Falster_20… leaf_area  For eac… 2000             2001             Study relat…
#> # … with 7 more variables: collection_type <chr>, sample_age_class <chr>,
#> #   sampling_strategy <chr>, source_primary_key <chr>,
#> #   source_primary_citation <chr>, source_secondary_key <chr>,
#> #   source_secondary_citation <chr>
#> 
#> $excluded_data
#> # A tibble: 0 x 13
#> # … with 13 variables: error <chr>, dataset_id <chr>, taxon_name <chr>,
#> #   site_name <chr>, context_name <chr>, observation_id <chr>,
#> #   trait_name <chr>, value <chr>, unit <chr>, date <chr>, value_type <fct>,
#> #   replicates <chr>, original_name <chr>
#> 
#> $taxonomic_updates
#> # A tibble: 38 x 8
#>    dataset_id  original_name   cleaned_name   taxonIDClean      taxonomicStatus…
#>    <chr>       <chr>           <chr>          <chr>             <chr>           
#>  1 Falster_20… Acacia floribu… Acacia florib… https://id.biodi… accepted        
#>  2 Falster_20… Acacia myrtifo… Acacia myrtif… https://id.biodi… accepted        
#>  3 Falster_20… Acacia suaveol… Acacia suaveo… https://id.biodi… accepted        
#>  4 Falster_20… Angophora hisp… Angophora his… https://id.biodi… accepted        
#>  5 Falster_20… Astrotricha fl… Astrotricha f… https://id.biodi… accepted        
#>  6 Falster_20… Banksia margin… Banksia margi… https://id.biodi… accepted        
#>  7 Falster_20… Banksia oblong… Banksia oblon… https://id.biodi… accepted        
#>  8 Falster_20… Boronia pinnata Boronia pinna… https://id.biodi… accepted        
#>  9 Falster_20… Breynia oblong… Breynia oblon… https://id.biodi… accepted        
#> 10 Falster_20… Conospermum lo… Conospermum l… https://id.biodi… accepted        
#> # … with 28 more rows, and 3 more variables:
#> #   alternativeTaxonomicStatusClean <chr>, acceptedNameUsageID <chr>,
#> #   taxon_name <chr>
#> 
#> $taxa
#> # A tibble: 38 x 10
#>    taxon_name source acceptedNameUsa… scientificNameA… taxonRank taxonomicStatus
#>    <chr>      <chr>  <chr>            <chr>            <chr>     <chr>          
#>  1 Acacia fl… APC    https://id.biod… (Vent.) Willd.   Species   accepted       
#>  2 Acacia my… APC    https://id.biod… (Sm.) Willd.     Species   accepted       
#>  3 Acacia su… APC    https://id.biod… (Sm.) Willd.     Species   accepted       
#>  4 Angophora… APC    https://id.biod… (Sm.) Blaxell    Species   accepted       
#>  5 Astrotric… APC    https://id.biod… DC.              Species   accepted       
#>  6 Banksia m… APC    https://id.biod… Cav.             Species   accepted       
#>  7 Banksia o… APC    https://id.biod… Cav.             Species   accepted       
#>  8 Boronia p… APC    https://id.biod… Sm.              Species   accepted       
#>  9 Breynia o… APC    https://id.biod… (Müll.Arg.) Mül… Species   accepted       
#> 10 Conosperm… APC    https://id.biod… Sm.              Species   accepted       
#> # … with 28 more rows, and 4 more variables: family <chr>,
#> #   taxonDistribution <chr>, ccAttributionIRI <chr>, genus <chr>
…
