austraits • austraits
…
Looking at the value element, it now has columns for each trait:

data_wide$value %>% names()

#>  [1] "dataset_id"           "taxon_name"           "site_name"           
#>  [4] "context_name"         "observation_id"       "leaf_angle"          
#>  [7] "leaf_area"            "leaf_compoundness"    "branch_mass_fraction"
#> [10] "huber_value"          "leaf_N_per_dry_mass"  "seed_mass"           
#> [13] "specific_leaf_area"   "wood_density"         "fire_response"       
#> [16] "plant_height"         "original_name"

data_wide$value

#> # A tibble: 103 × 17
#>    dataset_id   taxon_name   site_name    context_name observation_id leaf_angle
#>    <chr>        <chr>        <chr>        <chr>        <chr>          <list>    
#>  1 Falster_2003 Acacia myrt… Ku-ring-gai… NA           Falster_2003_… <chr [1]> 
#>  2 Falster_2003 Acacia suav… Ku-ring-gai… NA           Falster_2003_… <chr [1]> 
#>  3 Falster_2003 Angophora h… Ku-ring-gai… NA           Falster_2003_… <chr [1]> 
#>  4 Falster_2003 Banksia mar… Ku-ring-gai… NA           Falster_2003_… <chr [1]> 
#>  5 Falster_2003 Banksia obl… Ku-ring-gai… NA           Falster_2003_… <chr [1]> 
#>  6 Falster_2003 Boronia pin… Ku-ring-gai… NA           Falster_2003_… <chr [1]> 
#>  7 Falster_2003 Conospermum… Ku-ring-gai… NA           Falster_2003_… <chr [1]> 
#>  8 Falster_2003 Epacris pul… Ku-ring-gai… NA           Falster_2003_… <chr [1]> 
#>  9 Falster_2003 Eriostemon … Ku-ring-gai… NA           Falster_2003_… <chr [1]> 
#> 10 Falster_2003 Corymbia gu… Ku-ring-gai… NA           Falster_2003_… <chr [1]> 
#> # … with 93 more rows, and 11 more variables: leaf_area <list>,
#> #   leaf_compoundness <list>, branch_mass_fraction <list>, huber_value <list>,
#> #   leaf_N_per_dry_mass <list>, seed_mass <list>, specific_leaf_area <list>,
#> #   wood_density <list>, fire_response <list>, plant_height <list>,
#> #   original_name <chr>
…
