austraits • austraits
…
Looking at the value element, it now has columns for each trait:

data_wide$value %>% names()

#>  [1] "dataset_id"           "taxon_name"           "site_name"           
#>  [4] "context_name"         "observation_id"       "leaf_angle"          
#>  [7] "leaf_area"            "leaf_compoundness"    "branch_mass_fraction"
#> [10] "leaf_N_per_dry_mass"  "seed_mass"            "specific_leaf_area"  
#> [13] "wood_density"         "huber_value"          "fire_response"       
#> [16] "plant_height"         "original_name"

data_wide$value

#> # A tibble: 103 × 17
#>    dataset_id   taxon_name      site_name context_name observation_id leaf_angle
#>    <chr>        <chr>           <chr>     <chr>        <chr>               <dbl>
#>  1 Falster_2003 Acacia myrtifo… Ku-ring-… NA           Falster_2003_…       66.1
#>  2 Falster_2003 Acacia suaveol… Ku-ring-… NA           Falster_2003_…       71.7
#>  3 Falster_2003 Angophora hisp… Ku-ring-… NA           Falster_2003_…       50.8
#>  4 Falster_2003 Banksia margin… Ku-ring-… NA           Falster_2003_…       53.1
#>  5 Falster_2003 Banksia oblong… Ku-ring-… NA           Falster_2003_…       45  
#>  6 Falster_2003 Boronia pinnata Ku-ring-… NA           Falster_2003_…       43.9
#>  7 Falster_2003 Conospermum lo… Ku-ring-… NA           Falster_2003_…       72.3
#>  8 Falster_2003 Epacris pulche… Ku-ring-… NA           Falster_2003_…       42.9
#>  9 Falster_2003 Eriostemon aus… Ku-ring-… NA           Falster_2003_…       62.1
#> 10 Falster_2003 Corymbia gummi… Ku-ring-… NA           Falster_2003_…       59.3
#> # … with 93 more rows, and 11 more variables: leaf_area <dbl>,
#> #   leaf_compoundness <dbl>, branch_mass_fraction <dbl>,
#> #   leaf_N_per_dry_mass <dbl>, seed_mass <dbl>, specific_leaf_area <dbl>,
#> #   wood_density <dbl>, huber_value <dbl>, fire_response <dbl>,
#> #   plant_height <dbl>, original_name <chr>
…
